…
#### 5 - Turn the data farme into long format


``` r
gene_expression <- data %>% pivot_longer(
    cols = -Gene, 
    names_to = "Sample", 
    values_to = "Expression"
)
print(gene_expression)
```

```
# A tibble: 120 × 3
   Gene  Sample Expression
   <chr> <chr>       <int>
 1 Gene1 ca1             5
 2 Gene1 ca2            11
 3 Gene1 ca3             8
 4 Gene1 co1             2
 5 Gene1 co2             2
 6 Gene1 co3             1
 7 Gene2 ca1             6
 8 Gene2 ca2             7
 9 Gene2 ca3             9
10 Gene2 co1             0
# ℹ 110 more rows
```
…
